<?xml version="1.0" encoding="UTF-8"?>
<session version="1.0">
<refactoring comment="Delete resource &apos;ed-espelhamento&apos;" deleteContents="false" description="Delete resource &apos;ed-espelhamento&apos;" element1="/ed-espelhamento" flags="7" id="org.eclipse.ltk.core.refactoring.delete.resources" resources="1" stamp="1440549204790"/>
</session>